<?xml version="1.0" encoding="utf-8"?>
<!-- Generator: Adobe Illustrator 26.3.1, SVG Export Plug-In . SVG Version: 6.00 Build 0)  -->
<svg version="1.1" xmlns="http://www.w3.org/2000/svg" xmlns:xlink="http://www.w3.org/1999/xlink" x="0px" y="0px" width="559.5px"
	 height="530.9px" viewBox="0 0 559.5 530.9" style="enable-background:new 0 0 559.5 530.9;" xml:space="preserve">
<style type="text/css">
	.st0{fill-rule:evenodd;clip-rule:evenodd;fill:#D2E3FC;}
	.st1{fill:#D2E3FC;}
	.st2{fill-rule:evenodd;clip-rule:evenodd;fill:#4682F4;}
	.st3{fill:none;stroke:#4682F4;stroke-width:8;stroke-linecap:round;}
	.st4{opacity:0.2645;fill-rule:evenodd;clip-rule:evenodd;fill:#4682F4;enable-background:new    ;}
	.st5{fill-rule:evenodd;clip-rule:evenodd;fill:#FFFFFF;}
	.st6{fill:#F4BC7D;}
	.st7{fill:#E29023;}
	.st8{fill:#A05F10;}
</style>
<g id="Doctopus_00000072970874538662595600000015798033597645195192_">
	<g id="Doctopus">
		<g id="R3">
			<g id="Octopus" transform="translate(-3073.000000, -1360.000000)">
				<g id="Blue-Doctopus" transform="translate(3073.000000, 1360.000000)">
					<g id="Group-3-Copy">
						<g id="Group-4-Copy-2">
							<circle id="Oval" class="st0" cx="275" cy="164.5" r="164.5"/>
							<path id="Combined-Shape" class="st1" d="M405.8,267c-15.8,17-24.1,37.7-24.7,62.1c-0.6,24,9.5,41,30.4,51
								c6.3,1,10.8-0.1,14.5-2.9c1.6-1.2,3-2.6,4.1-4.2c0.4-0.6,0.7-1.2,1-1.6l0,0l0.1-0.2c1.2-4.4,1.3-7.7,0.2-10.4l0,0H431
								c-7.8,0.7-15.6-3.2-19.5-10.5c-5.2-9.7-1.5-21.9,8.2-27.1c15.8-8.5,31.9-2.8,42.7,11.7c6.1,8.3,9.2,17.5,9.7,27.2
								c0.3,7-0.6,13.4-2.5,20.1c-2.6,9.2-9.9,19.7-19.8,26.9c-13.2,9.7-30,13.5-48.6,9.4c-13.8-3-25-8.8-34.1-17.2
								c-7.2-6.6-12.4-14-17.6-23.8l0,0l-0.2-0.4c-0.7-1.3-1.4-2.7-2.3-4.4l0,0l-2.1-4.1l-0.7-1.3l-0.9-1.8
								c-6.2-12.1-11.4-29.8-16-53.6l0,0l-0.4-2.1l-0.4-2c-1.4-7.5,1.6-14.9,7.3-19.3c-0.2-4.3-0.4-8.9-0.6-13.8l0,0L405.8,267z"/>
							<path id="Combined-Shape_00000096778080495253818560000003990752061023956156_" class="st1" d="M412.2,105.3
								c11.3,2.3,18.7,13.3,16.4,24.6c-5,24.8-8.1,45.4-9.5,61.6l20.5-12.2c-5.3,31.9-5,53.6,0.9,65c3.8,7.3,15,7.8,26.8,7.2
								c1.2-0.2,2.5-0.4,3.8-0.7l0.8-0.2l6.5-1.4c0.6-0.1,1.1-0.2,1.6-0.3l0.5-0.1l1-0.2l0.9-0.2c3.9-0.7,7.3-1.1,10.7-1.2
								c5.3-0.2,10.4,0.3,15.5,1.6c26.9,7.2,42.4,26.9,40.2,56.1c-1.1,15.5-8.2,27.6-19.5,34.9c-8.2,5.3-17.7,7.4-26.4,7.1
								c-9.6-0.3-18.8-4.2-28-10.8c-9.4-6.7-11.5-19.8-4.8-29.2c6.7-9.3,19.6-11.5,28.9-5l0.3,0.2l0.4,0.3c1.7,1.2,3.1,2,4.2,2.4
								c0.3,0.1,0.5,0.2,0.7,0.3c0.6,0,1.3-0.2,1.8-0.3l0.1-0.1l0.1-0.2l0.1-0.3c0.2-0.6,0.3-1.4,0.4-2.4c0.6-7.9-0.9-10.2-8.2-12.3
								l-0.3-0.1l-0.7-0.2c-0.8-0.2-1.8-0.3-3.1-0.3c-1.6,0.1-1.9,0-4.4,0.5l-0.3,0.1l-1.3,0.2l-5.1,1c-10.3,7-25.2,12.4-45.4,14
								c-24,1.9-37.9-6-45.8-15l-14.9,7.3l-7.9-16.2l13.9-6.8c-1.1-3.5-1.5-6.1-1.7-6.8c-1.3-8.8-2.4-19.7-3.1-32.8l-0.1-0.4
								c-4.8-21.2-2.2-55.5,7.3-104.8l0.3-1.5l0.6-3.1l0.6-3.2C389.8,110.4,400.8,103.1,412.2,105.3z"/>
							<path id="Combined-Shape_00000057860154556050374170000016382538852325162397_" class="st1" d="M153,181l0.7,4l0.5,2.8
								c4.8,30,6.5,50,5,62l-0.1,1l-0.1,1c-0.1,0.7-0.2,1.5-0.2,2.4l-0.5,5.1c-0.2,1.9-0.4,3.7-0.5,5.4l12.6,9.8
								c-10.7,32.7-26.3,50.7-47,54c-11.9,1.9-24.2,2.1-32,0c-0.7-0.2-1.4-0.4-2.2-0.7c-6.4-1.8-12.7-5-18.7-9.7
								c-1.2-1-2.3-2-3.3-3.2l-1-1.2l-1-1.2c-6-7.1-11.1-12.3-15.2-15.6c-1.3-1-2.4-1.8-3.2-2.3l-0.2-0.1c-1.4,0-2.7,0.1-3.7,0.3
								c0.2,0.5,0.5,1.1,0.8,1.7l0.2,0.4c5.3,10.3,1.3,23-9,28.3s-23,1.3-28.3-9c-7.1-13.7-8.9-27.2-3.5-39.7
								c4.2-9.8,12-16.6,21.8-20.3c7-2.6,14.6-3.6,23.5-3.6c9.7,0,18.7,4.2,27.9,11.6c3.7,3,7.6,6.5,11.6,10.8
								c9.4,7,16.6,8.2,21.5,3.6c1.9-1.8,3.6-4.7,5.1-8.5c0.7-3.2,1.3-7,1.8-12.1l0.7-7.7l0.1-1.2l0.1-1.1c0.1-0.9,0.2-1.8,0.3-2.6
								l0.1-0.5c1-7.2-0.9-26.9-5.9-56.8c-1.9-11.4,5.8-22.3,17.3-24.2C140.3,161.9,151.1,169.6,153,181z"/>
							<path id="Combined-Shape_00000044144815803639111740000000811975684224921736_" class="st1" d="M235.7,296.2l6.3,0.4
								c2.5,29.2,1.1,49.4-4,60.7c-0.6,1.3-1.2,2.6-2,3.8c-8.5,22.8-39.9,38.2-65.8,30c-8.4-2.6-14.9-6.1-21.5-10.9l-0.7-0.5
								c-1.6-1.2-6.2-4.7-6-4.6l-0.6-0.5c-2.7-2-4.1-2.7-6.1-3.1c-2.5-0.5-4.4-0.7-5.8-0.7h-0.4h-0.3c-0.3,0-0.5,0.1-0.6,0.1l0,0
								c0,0-0.1,0-0.3,0.3c-0.7,0.7-1.5,2-2.4,4c-1.5,3.3-1.4,5.3,0.9,8.6l0.2,0.3c6.4,9,4.3,21.5-4.6,27.9
								c-9,6.4-21.5,4.3-27.9-4.6c-10.8-15.1-12.6-32.5-4.8-49.1c10.8-23.1,29.4-31.1,54-26.2c4.4,0.9,8.2,2.1,11.8,3.9l-0.1-0.1
								c10.3,5.2,19.5,5.8,27.5,1.8s6.9-19.1-3.4-45.3l20.8,1.3c3.3-5.6,9.1-9.5,16.1-9.9C224.8,283.5,232.5,288.6,235.7,296.2z"/>
							<path id="Combined-Shape_00000064341666080534562670000017450356088125134209_" class="st1" d="M302.4,278
								c13,0.2,23.3,10.9,23.1,23.9c-0.9,48.9-7.1,85.2-19.5,109.8c-9.5,18.9-22.9,31.5-38.8,38.4c-6.2,2.7-12.5,4.3-18.9,5.2
								c-4.4,0.6-7.7,0.7-12.3,0.7c-11.8,0-22.9-4.6-33.4-12.8c-10.2-8-12.1-22.8-4.1-33c7.9-10.1,22.5-12,32.7-4.3l0.3,0.2
								c1.6,1.3,3,2.1,4.1,2.6l0.2,0.1c0.2,0.1,0.3,0.1,0.4,0.2h0.1c5.4,0,8.7-0.5,12.5-2.1c5.7-2.4,10.8-7.3,15.4-16.3
								c1.6-3.2,3.1-6.8,4.4-10.9c0.8-3.6,1.4-7.4,1.7-11.5c1.3-17.5-6-34.2-21.8-50l29.6-3.1c0.2-4.5,0.3-9.2,0.4-14.1
								C278.7,288.1,289.4,277.8,302.4,278z"/>
							<g id="Group" transform="translate(290.000000, 145.000000)">
							</g>
							<g id="Group-Copy" transform="translate(180.184870, 145.000000)">
							</g>
						</g>
					</g>
					<circle id="Oval-Copy-2" class="st2" cx="305" cy="159.5" r="15"/>
					<circle id="Oval-Copy-3" class="st2" cx="195.3" cy="159.5" r="15"/>
					<path id="Path-6-Copy" class="st3" d="M225.5,213.5l6.6,3.4c13.9,7.1,30.7,5.8,43.4-3.4l0,0l0,0"/>
					<circle id="Oval-Copy-4" class="st4" cx="339.5" cy="217.5" r="29"/>
					<circle id="Oval-Copy-5" class="st4" cx="161.5" cy="213.5" r="29"/>
					<path id="Oval-Copy-6" class="st5" d="M158.7,75.1c1.5,1.2,4.5-0.1,6.7-2.8s9.6-13.7,8-14.9c-1.5-1.2-11.4,7.8-13.6,10.5
						C157.7,70.7,157.2,73.9,158.7,75.1z"/>
				</g>
			</g>
		</g>
	</g>
	<path id="Combined-Shape_00000176755523807510705200000007151202762378886792_" class="st1" d="M405.8,267
		c-15.8,17-24.1,37.7-24.7,62.1c-0.6,24,9.5,41,30.4,51c6.3,1,10.8-0.1,14.5-2.9c1.6-1.2,3-2.6,4.1-4.2c0.4-0.6,0.7-1.2,1-1.6l0,0
		l0.1-0.2c1.2-4.4,1.3-7.7,0.2-10.4l0,0H431c-7.8,0.7-15.6-3.2-19.5-10.5c-5.2-9.7-1.5-21.9,8.2-27.1c15.8-8.5,31.9-2.8,42.7,11.7
		c6.1,8.3,9.2,17.5,9.7,27.2c0.3,7-0.6,13.4-2.5,20.1c-2.6,9.2-9.9,19.7-19.8,26.9c-13.2,9.7-30,13.5-48.6,9.4
		c-13.8-3-25-8.8-34.1-17.2c-7.2-6.6-12.4-14-17.6-23.8l0,0l-0.2-0.4c-0.7-1.3-1.4-2.7-2.3-4.4l0,0l-2.1-4.1l-0.7-1.3l-0.9-1.8
		c-6.2-12.1-11.4-29.8-16-53.6l0,0l-0.4-2.1l-0.4-2c-1.4-7.5,1.6-14.9,7.3-19.3c-0.2-4.3-0.4-8.9-0.6-13.8l0,0L405.8,267z"/>
</g>
<g id="Briefcase">
	<g>
		<path class="st6" d="M378.3,509.8h138.6c11.7,0,21.3-9.6,21.3-21.3v-80.2c0-11.7-9.6-21.3-21.3-21.3H378.3
			c-11.7,0-21.3,9.6-21.3,21.3v80.2C357,500.2,366.6,509.8,378.3,509.8z"/>
		<path class="st7" d="M516.9,365.6h-18.1h-21.6h-59.4h-21.3h-18.1c-23.5,0-42.6,19.2-42.6,42.6v80.2c0,23.5,19.2,42.4,42.6,42.4
			h138.6c23.5,0,42.6-19.2,42.6-42.6v-80C559.5,384.8,540.3,365.6,516.9,365.6z M538.2,488.5c0,11.7-9.6,21.3-21.3,21.3H378.3
			c-11.7,0-21.3-9.6-21.3-21.3v-80.2c0-11.7,9.6-21.3,21.3-21.3h138.6c11.7,0,21.3,9.6,21.3,21.3V488.5z"/>
		<path class="st8" d="M472.1,332.6h-49c-14.7,0-26.7,12-26.7,26.7v6.4h21.3v-6.4c0-2.9,2.4-5.3,5.3-5.3h48.8c2.9,0,5.3,2.4,5.3,5.3
			v6.4h21.6v-6.4C498.7,344.6,486.8,332.6,472.1,332.6z"/>
	</g>
</g>
<g id="Arm">
	<path id="Combined-Shape_00000148627713776078326210000000572891294702420893_" class="st1" d="M420.4,358.9c0,0-6.8-4.7-8.9-8.6
		c-5.2-9.7-1.5-21.9,8.2-27.1c15.8-8.5,31.9-2.8,42.7,11.7c5.4,7.4,9.4,23.9,9.4,23.9L420.4,358.9z"/>
</g>
</svg>
